…
``` r
surv_plot_age_group(results_df)
```

    ## [1] "Numerical Results:"
    ## # A tibble: 30 × 6
    ##    period      age_group coefficient se_coef hazard_ratio   hr_se
    ##    <chr>       <chr>           <dbl>   <dbl>        <dbl>   <dbl>
    ##  1 1986 - 1996 18-29         -0.0256 0.00860        0.975 0.00839
    ##  2 1986 - 1996 30-39         -0.0582 0.00601        0.943 0.00567
    ##  3 1986 - 1996 40-49         -0.0938 0.00459        0.910 0.00418
    ##  4 1986 - 1996 50-59         -0.145  0.00374        0.865 0.00324
    ##  5 1986 - 1996 60-69         -0.187  0.00320        0.829 0.00265
    ##  6 1986 - 1996 70+           -0.207  0.00306        0.813 0.00249
    ##  7 1991 - 2001 18-29         -0.0478 0.0111         0.953 0.0106 
    ##  8 1991 - 2001 30-39         -0.0612 0.00746        0.941 0.00702
    ##  9 1991 - 2001 40-49         -0.0955 0.00547        0.909 0.00497
    ## 10 1991 - 2001 50-59         -0.125  0.00451        0.883 0.00398
    ## # ℹ 20 more rows
…
``` r
surv_plot_age_group(results_df)
```

    ## [1] "Numerical Results:"
    ## # A tibble: 30 × 6
    ##    period      age_group coefficient se_coef hazard_ratio   hr_se
    ##    <chr>       <chr>           <dbl>   <dbl>        <dbl>   <dbl>
    ##  1 1986 - 2001 18-29         -0.0333 0.00800        0.967 0.00773
    ##  2 1986 - 2001 30-39         -0.0618 0.00552        0.940 0.00519
    ##  3 1986 - 2001 40-49         -0.0947 0.00414        0.910 0.00376
    ##  4 1986 - 2001 50-59         -0.135  0.00338        0.874 0.00296
    ##  5 1986 - 2001 60-69         -0.174  0.00292        0.840 0.00245
    ##  6 1986 - 2001 70+           -0.202  0.00268        0.817 0.00219
    ##  7 1991 - 2006 18-29         -0.0335 0.0103         0.967 0.00995
    ##  8 1991 - 2006 30-39         -0.0562 0.00698        0.945 0.00659
    ##  9 1991 - 2006 40-49         -0.0908 0.00504        0.913 0.00460
    ## 10 1991 - 2006 50-59         -0.115  0.00411        0.892 0.00366
    ## # ℹ 20 more rows
…
