…
# This clean version can be used for tabular summary or plotting.
# Example tabular summary:
model_results_clean
```

    ## # A tibble: 96 × 8
    ##     year term          estimate conf.low conf.high std.error statistic   p.value
    ##    <dbl> <chr>            <dbl>    <dbl>     <dbl>     <dbl>     <dbl>     <dbl>
    ##  1  1993 physical_hea…   0.534    0.522     0.546    0.00603      88.5 0        
    ##  2  1993 mental_health   0.0605   0.0503    0.0706   0.00519      11.6 2.62e- 31
    ##  3  1993 usual_activi…   0.254    0.239     0.269    0.00742      34.2 2.50e-255
    ##  4  1994 physical_hea…   0.723    0.708     0.738    0.00773      93.6 0        
    ##  5  1994 mental_health   0.253    0.240     0.267    0.00698      36.3 2.30e-284
    ##  6  1994 usual_activi…   0.228    0.213     0.244    0.00772      29.6 7.90e-191
    ##  7  1995 physical_hea…   0.699    0.684     0.713    0.00730      95.7 0        
    ##  8  1995 mental_health   0.241    0.228     0.254    0.00650      37.1 2.16e-297
    ##  9  1995 usual_activi…   0.244    0.230     0.258    0.00720      33.9 3.77e-249
    ## 10  1996 physical_hea…   0.694    0.680     0.708    0.00707      98.2 0        
    ## # ℹ 86 more rows
…
