…
# Combine all results
results_all <- bind_rows(results_physical, results_mental, results_functional,
                         results_sex, results_edu) %>% 
  mutate(predictor = factor(predictor, levels = c("Physical Health", "Mental Health", "Functional Health", "Education", "Sex")))

# Quick sanity check of subgroup sizes
sample_sizes <- data_brfss %>%
  group_by(year, age_decade_cat) %>%
  summarise(n = n(), .groups = "drop")
print(sample_sizes)
```

    ## # A tibble: 224 × 3
    ##     year age_decade_cat     n
    ##    <dbl> <ord>          <int>
    ##  1  1993 18-29          20127
    ##  2  1993 30-39          24323
    ##  3  1993 40-49          19149
    ##  4  1993 50-59          12490
    ##  5  1993 60-69          12116
    ##  6  1993 70-79           9434
    ##  7  1993 80+             3732
    ##  8  1994 18-29          19995
    ##  9  1994 30-39          24703
    ## 10  1994 40-49          20353
    ## # ℹ 214 more rows
…
