…
``` r
weighted_lm_by_year
```

    ## # A tibble: 29 × 7
    ##     year estimate std.error conf.low conf.high statistic p.value
    ##    <dbl>    <dbl>     <dbl>    <dbl>     <dbl>     <dbl>   <dbl>
    ##  1  1996  -0.0252  0.000223  -0.0256   -0.0247     -113.       0
    ##  2  1997  -0.0246  0.000220  -0.0250   -0.0242     -112.       0
    ##  3  1998  -0.0240  0.000219  -0.0244   -0.0236     -110.       0
    ##  4  1999  -0.0236  0.000215  -0.0240   -0.0231     -109.       0
    ##  5  2000  -0.0236  0.000217  -0.0240   -0.0231     -108.       0
    ##  6  2001  -0.0239  0.000192  -0.0243   -0.0236     -125.       0
    ##  7  2002  -0.0233  0.000193  -0.0236   -0.0229     -121.       0
    ##  8  2003  -0.0235  0.000193  -0.0238   -0.0231     -122.       0
    ##  9  2004  -0.0228  0.000193  -0.0232   -0.0224     -118.       0
    ## 10  2005  -0.0227  0.000191  -0.0230   -0.0223     -119.       0
    ## # ℹ 19 more rows
…
``` r
result_cps$results
```

    ## # A tibble: 30 × 9
    ##    dataset    interval  age_group estimate       se   pvalue lower_ci upper_ci
    ##    <chr>      <chr>     <fct>        <dbl>    <dbl>    <dbl>    <dbl>    <dbl>
    ##  1 CPS Survey 2014-2024 66+        0.00966 0.000858 2.37e-29  0.00797  0.0113 
    ##  2 CPS Survey 2014-2024 26-35     -0.0104  0.000790 7.80e-40 -0.0120  -0.00889
    ##  3 CPS Survey 2014-2024 36-45     -0.00617 0.000786 4.30e-15 -0.00771 -0.00463
    ##  4 CPS Survey 2014-2024 46-55      0.00740 0.000876 3.07e-17  0.00568  0.00912
    ##  5 CPS Survey 2014-2024 56-65      0.00556 0.000962 7.75e- 9  0.00367  0.00744
    ##  6 CPS Survey 2014-2024 18-25     -0.0126  0.000867 1.03e-47 -0.0143  -0.0109 
    ##  7 CPS Survey 2009-2024 56-65      0.00577 0.000521 1.44e-28  0.00475  0.00679
    ##  8 CPS Survey 2009-2024 46-55      0.00671 0.000454 2.50e-49  0.00582  0.00760
    ##  9 CPS Survey 2009-2024 26-35     -0.00481 0.000419 1.90e-30 -0.00563 -0.00399
    ## 10 CPS Survey 2009-2024 36-45     -0.00181 0.000415 1.24e- 5 -0.00263 -0.00100
    ## # ℹ 20 more rows
    ## # ℹ 1 more variable: significance <chr>
…
